{
  "DEVELOPMENT": {
    "loggerName": "STRINGS",
    "consoleStream": false,
    "logStashStream": false,
    "logstashLogLevel": "warn",
    "fileStream": true,
    "fileLogLevel": "warn",
    "rotating": true,
    "rotatingPeriod": "1d",
    "rotatingFilesCount": 90,
    "fileName": "/home/gitlab-runner/application-logs/strings.log"
  },
  "TEST": {
    "loggerName": "STRINGS",
    "consoleStream": true,
    "consoleLogLevel": "debug",
    "logStashStream": false,
    "fileStream": false,
    "fileLogLevel": "error",
    "rotating": false,
    "fileName": "strings.log"
  },
  "PRODUCTION": {
    "loggerName": "STRINGS",
    "consoleStream": false,
    "logStashStream": false,
    "logstashLogLevel": "warn",
    "fileStream": true,
    "fileLogLevel": "warn",
    "rotating": true,
    "rotatingPeriod": "1d",
    "rotatingFilesCount": 90,
    "fileName": "strings.log"
  }
}